{
  "project_info": {
    "project_number": "317832100691",
    "firebase_url": "https://qrpics-6dac0.firebaseio.com",
    "project_id": "qrpics-6dac0",
    "storage_bucket": "qrpics-6dac0.appspot.com"
  },
  "client": [
    {
      "client_info": {
        "mobilesdk_app_id": "1:317832100691:android:1064ad40c76fa815b0ffa6",
        "android_client_info": {
          "package_name": "com.up.qrpics"
        }
      },
      "oauth_client": [
        {
          "client_id": "317832100691-asjjb3fsa1uq940q0euukldlepqfr1ok.apps.googleusercontent.com",
          "client_type": 3
        }
      ],
      "api_key": [
        {
          "current_key": "AIzaSyB0dshYUS0n8zjAxkkDKSWtjHpBZCbtYag"
        }
      ],
      "services": {
        "appinvite_service": {
          "other_platform_oauth_client": [
            {
              "client_id": "317832100691-km4nedt439gujdnui9mflisp95dfp5b8.apps.googleusercontent.com",
              "client_type": 3
            }
          ]
        }
      }
    }
  ],
  "configuration_version": "1"
}